…
 This will necessitate the use of the [dplyr](http://dplyr.tidyverse.org) package to manipulate the data frame of letters sent to Daniel and split it into two data frames ot [tibbles](http://r4ds.had.co.nz/tibbles.html) with the structure of edge and node lists. 
 
 
The first step is to load the `tidyverse` library to import and manipulate the data. Printing out the `letters` data frame shows that it contains four columns: "writer", "source", "destination", and "date". In this example, we will only deal with the "source" and "destination" columns.


```r
library(tidyverse)
letters <- read_csv("data/correspondence-data-1585.csv")

letters
```

```
## # A tibble: 114 x 4
##    writer                  source  destination date      
##    <chr>                   <chr>   <chr>       <date>    
##  1 Meulen, Andries van der Antwerp Delft       1585-01-03
##  2 Meulen, Andries van der Antwerp Haarlem     1585-01-09
##  3 Meulen, Andries van der Antwerp Haarlem     1585-01-11
##  4 Meulen, Andries van der Antwerp Delft       1585-01-12
##  5 Meulen, Andries van der Antwerp Haarlem     1585-01-12
##  6 Meulen, Andries van der Antwerp Delft       1585-01-17
##  7 Meulen, Andries van der Antwerp Delft       1585-01-22
##  8 Meulen, Andries van der Antwerp Delft       1585-01-23
##  9 Della Faille, Marten    Antwerp Haarlem     1585-01-24
## 10 Meulen, Andries van der Antwerp Delft       1585-01-28
## # … with 104 more rows
```
…
